module github.com/hookdeck/hookdeck-cli

go 1.18

require (
	github.com/AlecAivazis/survey/v2 v2.2.9
	github.com/BurntSushi/toml v0.3.1
	github.com/briandowns/spinner v1.11.1
	github.com/google/go-github/v28 v28.1.1
	github.com/gorilla/websocket v1.4.2
	github.com/gosimple/slug v1.9.0
	github.com/logrusorgru/aurora v2.0.3+incompatible
	github.com/mitchellh/go-homedir v1.1.0
	github.com/sirupsen/logrus v1.8.0
	github.com/spf13/cobra v1.0.0
	github.com/spf13/viper v1.7.1
	github.com/stretchr/testify v1.7.0
	github.com/tidwall/pretty v1.0.2
	github.com/x-cray/logrus-prefixed-formatter v0.5.2
	golang.org/x/sys v0.0.0-20201223074533-0d417f636930
	golang.org/x/term v0.0.0-20210220032956-6a3ed077a48d
)

require (
	github.com/chzyer/readline v0.0.0-20180603132655-2972be24d48e // indirect
	github.com/creack/pty v1.1.9 // indirect
	github.com/davecgh/go-spew v1.1.1 // indirect
	github.com/fatih/color v1.9.0 // indirect
	github.com/fsnotify/fsnotify v1.4.9 // indirect
	github.com/google/go-querystring v1.0.0 // indirect
	github.com/hashicorp/hcl v1.0.0 // indirect
	github.com/inconshreveable/mousetrap v1.0.0 // indirect
	github.com/kballard/go-shellquote v0.0.0-20180428030007-95032a82bc51 // indirect
	github.com/kr/pty v1.1.8 // indirect
	github.com/kr/text v0.2.0 // indirect
	github.com/magefile/mage v1.10.0 // indirect
	github.com/magiconair/properties v1.8.3 // indirect
	github.com/manifoldco/promptui v0.9.0 // indirect
	github.com/mattn/go-colorable v0.1.7 // indirect
	github.com/mattn/go-isatty v0.0.12 // indirect
	github.com/mgutz/ansi v0.0.0-20200706080929-d51e80ef957d // indirect
	github.com/mitchellh/mapstructure v1.3.3 // indirect
	github.com/onsi/ginkgo v1.14.1 // indirect
	github.com/onsi/gomega v1.10.1 // indirect
	github.com/pelletier/go-toml v1.8.1 // indirect
	github.com/pmezard/go-difflib v1.0.0 // indirect
	github.com/rainycape/unidecode v0.0.0-20150907023854-cb7f23ec59be // indirect
	github.com/spf13/afero v1.4.0 // indirect
	github.com/spf13/cast v1.3.1 // indirect
	github.com/spf13/jwalterweatherman v1.1.0 // indirect
	github.com/spf13/pflag v1.0.5 // indirect
	github.com/subosito/gotenv v1.2.0 // indirect
	golang.org/x/crypto v0.0.0-20200820211705-5c72a883971a // indirect
	golang.org/x/net v0.0.0-20200904194848-62affa334b73 // indirect
	golang.org/x/text v0.3.3 // indirect
	gopkg.in/check.v1 v1.0.0-20201130134442-10cb98267c6c // indirect
	gopkg.in/ini.v1 v1.61.0 // indirect
	gopkg.in/yaml.v2 v2.3.0 // indirect
	gopkg.in/yaml.v3 v3.0.0-20200615113413-eeeca48fe776 // indirect
)
